%TF.GenerationSoftware,KiCad,Pcbnew,7.0.6*%
%TF.CreationDate,2023-08-02T18:23:44-07:00*%
%TF.ProjectId,MC16,4d433136-2e6b-4696-9361-645f70636258,2*%
%TF.SameCoordinates,PX4aba9d8PY80de3c0*%
%TF.FileFunction,Profile,NP*%
%FSLAX46Y46*%
G04 Gerber Fmt 4.6, Leading zero omitted, Abs format (unit mm)*
G04 Created by KiCad (PCBNEW 7.0.6) date 2023-08-02 18:23:44*
%MOMM*%
%LPD*%
G01*
G04 APERTURE LIST*
%TA.AperFunction,Profile*%
%ADD10C,0.010000*%
%TD*%
G04 APERTURE END LIST*
D10*
X64039800Y-127000D02*
X64039800Y7810500D01*
X130238500Y7810500D02*
X130238500Y-127000D01*
X130238500Y-127000D02*
X64039800Y-127000D01*
X381000Y7810500D02*
X381000Y78454200D01*
X140716000Y78454200D02*
X140557200Y7810500D01*
X64039800Y7810500D02*
X381000Y7810500D01*
X381000Y78454200D02*
X140716000Y78454200D01*
X140557200Y7810500D02*
X130238500Y7810500D01*
M02*
