%FSLAX34Y34*%
%MOMM*%
%LNOUTLINE*%
G71*
G01*
%ADD10C, 0.400*%
%LPD*%
G54D10*
X1349375Y171450D02*
X687388Y171450D01*
X687388Y250825D01*
X50800Y250825D01*
X50800Y957262D01*
X1454150Y957262D01*
X1452562Y250825D01*
X1349375Y250825D01*
X1349375Y171450D01*
M02*
