; Drill file
; Format: 2.4 (00.0000)
M48
INCH
T01C0.0197
T02C0.0236
T03C0.0283
T04C0.0315
T05C0.0394
%
G05
G90
T01
X006000Y021000
X007000Y021500
X014000Y019000
X016000Y018000
X018250Y020750
X018000Y025000
X018000Y028000
X021000Y030000
X021500Y034000
X016500Y031500
X021000Y024500
X022000Y025000
X023500Y021500
X025500Y022000
X026750Y023750
X027500Y025500
X028000Y027000
X027000Y029000
X027500Y030000
X028500Y029500
X028000Y031500
X027500Y035500
X032000Y030000
X031500Y028000
X033000Y025000
X033500Y022000
X033500Y021000
X032000Y022000
X033000Y019000
X034000Y018000
X034000Y016000
X035000Y016000
X034500Y015000
X035500Y015000
X036250Y015500
X038750Y017000
X038750Y018000
X038750Y019000
X041000Y018000
X043250Y015500
X044500Y015500
X045500Y015500
X043500Y013000
X042500Y012500
X039250Y011250
X038500Y010500
X033000Y013000
X032000Y013000
X031000Y012500
X030000Y012000
X029500Y010500
X030500Y010500
X031500Y010500
X032000Y015000
X029000Y015000
X029000Y016000
X027000Y014500
X026000Y015500
X023500Y015500
X022500Y016000
X019500Y015000
X018250Y013250
X025500Y027500
X035000Y031000
X038750Y030750
X038500Y033000
X039500Y034000
X040500Y033500
X043500Y033000
X046500Y028000
X045500Y027500
X044500Y027000
X049000Y030000
X049750Y024500
X050250Y023500
X049000Y022250
X051000Y017500
X051500Y016500
X049000Y016250
X050000Y010500
X051000Y010500
X037000Y022000
X036000Y021000
T02
X004040Y011030
X005040Y011030
X006040Y011030
X007040Y011030
X008040Y011060
X009040Y011060
X010040Y011060
X011040Y011060
X012040Y011060
X013040Y011060
X013040Y015060
X012040Y015060
X011040Y015060
X010040Y015060
X009040Y015060
X008040Y015060
X007040Y015030
X006040Y015030
X005040Y015030
X004040Y015030
X029310Y030490
X033310Y030490
X043060Y024490
X047060Y024490
X051040Y025530
X051000Y026500
X052040Y025530
X053040Y025530
X054040Y025530
X054000Y026500
X054000Y029000
X051000Y029000
X048540Y031530
X047540Y031530
X046540Y031530
X046540Y035530
X047540Y035530
X048540Y035530
X051040Y021530
X052040Y021530
X053040Y021530
X054040Y021530
X047060Y018490
X043060Y018490
T03
X004000Y016500
X005000Y016500
X006000Y016500
X007000Y016500
X008000Y016500
X009000Y016500
X010000Y016500
X011000Y016500
X012000Y016500
X013000Y016500
X014000Y016500
X015000Y016500
X019000Y017000
X020000Y017000
X021000Y017000
X022000Y017000
X023000Y017000
X024000Y017000
X025000Y017000
X026000Y017000
X026000Y020000
X025000Y020000
X024000Y020000
X023000Y020000
X022000Y020000
X021000Y020000
X020000Y020000
X019000Y020000
X019000Y023000
X020000Y023000
X021000Y023000
X022000Y023000
X023000Y023000
X024000Y023000
X025000Y023000
X026000Y023000
X026000Y026000
X025000Y026000
X024000Y026000
X023000Y026000
X022000Y026000
X021000Y026000
X020000Y026000
X020000Y029000
X021000Y029000
X022000Y029000
X023000Y029000
X024000Y029000
X025000Y029000
X026000Y029000
X026000Y032000
X025000Y032000
X024000Y032000
X023000Y032000
X022000Y032000
X021000Y032000
X020000Y032000
X020000Y035000
X021000Y035000
X022000Y035000
X023000Y035000
X024000Y035000
X025000Y035000
X026000Y035000
X030000Y035000
X031000Y035000
X032000Y035000
X033000Y035000
X034000Y035000
X035000Y035000
X036000Y035000
X037000Y035000
X039000Y035000
X040000Y035000
X041000Y035000
X042000Y035000
X043000Y035000
X044000Y035000
X045000Y035000
X045000Y032000
X044000Y032000
X043000Y032000
X042000Y032000
X041000Y032000
X040000Y032000
X039000Y032000
X037000Y032000
X036000Y032000
X035000Y032000
X034000Y032000
X033000Y032000
X032000Y032000
X031000Y032000
X030000Y032000
X030000Y029000
X031000Y029000
X032000Y029000
X033000Y029000
X034000Y029000
X035000Y029000
X036000Y029000
X037000Y029000
X040000Y029000
X041000Y029000
X042000Y029000
X043000Y029000
X044000Y029000
X045000Y029000
X046000Y029000
X047000Y029000
X048000Y029000
X048000Y026000
X047000Y026000
X046000Y026000
X045000Y026000
X044000Y026000
X043000Y026000
X042000Y026000
X041000Y026000
X040000Y026000
X040000Y023000
X041000Y023000
X042000Y023000
X043000Y023000
X044000Y023000
X045000Y023000
X046000Y023000
X047000Y023000
X048000Y023000
X048000Y020000
X047000Y020000
X046000Y020000
X045000Y020000
X044000Y020000
X043000Y020000
X042000Y020000
X041000Y020000
X040000Y020000
X040000Y017000
X041000Y017000
X042000Y017000
X043000Y017000
X044000Y017000
X045000Y017000
X046000Y017000
X047000Y017000
X048000Y017000
X050130Y016000
X050130Y015000
X050130Y014000
X048000Y014000
X047000Y014000
X046000Y014000
X045000Y014000
X044000Y014000
X043000Y014000
X042000Y014000
X041000Y014000
X040000Y014000
X037000Y014000
X036000Y014000
X035000Y014000
X034000Y014000
X033000Y014000
X032000Y014000
X031000Y014000
X030000Y014000
X030000Y017000
X031000Y017000
X032000Y017000
X033000Y017000
X034000Y017000
X035000Y017000
X036000Y017000
X037000Y017000
X037000Y020000
X036000Y020000
X035000Y020000
X034000Y020000
X033000Y020000
X032000Y020000
X031000Y020000
X030000Y020000
X030000Y023000
X031000Y023000
X032000Y023000
X033000Y023000
X034000Y023000
X035000Y023000
X036000Y023000
X037000Y023000
X037000Y026000
X036000Y026000
X035000Y026000
X034000Y026000
X033000Y026000
X032000Y026000
X031000Y026000
X030000Y026000
X026000Y014000
X025000Y014000
X024000Y014000
X023000Y014000
X022000Y014000
X021000Y014000
X020000Y014000
X019000Y014000
X015000Y022500
X014000Y022500
X013000Y022500
X012000Y022500
X011000Y022500
X010000Y022500
X009000Y022500
X008000Y022500
X007000Y022500
X006000Y022500
X005000Y022500
X004000Y022500
X009000Y024500
X010000Y024500
X011000Y024500
X012000Y024500
X013000Y024500
X014000Y024500
X015000Y024500
X015000Y027500
X014000Y027500
X013000Y027500
X012000Y027500
X011000Y027500
X010000Y027500
X009000Y027500
X050130Y020000
X050130Y019000
X050130Y018000
X051000Y030500
X052000Y030500
X053000Y030500
X054000Y030500
X054000Y033500
X053000Y033500
X052000Y033500
X051000Y033500
T04
X027500Y011500
X027500Y015500
X026750Y018500
X030750Y018500
X037500Y030500
X041500Y030500
X050000Y035500
X052500Y035500
X053500Y034750
X054250Y035500
X055000Y034750
X055000Y012000
X051000Y012000
X049000Y011500
X045000Y011500
X019750Y030500
X015750Y030500
T05
X013910Y030640
X013920Y035520
M30
